…
``` r
# dep_time_msm is the departure time in minutes since midnight
#
# sched_dep_time_msm is the scheduled departure time in minutes since
# midnight
flights %>% mutate(dep_time_msm = (dep_time %/% 100) * 60 + dep_time %% 100,
                   sched_dep_time_msm = (sched_dep_time %/% 100) * 60
                   + sched_dep_time %% 100) %>%
    # Select the rows we are working with to simplify the display.
    # will probably want things like air time, etc, for actual use, but we
    # don't need it now
    select(flight, dep_time, dep_time_msm, sched_dep_time, sched_dep_time_msm)
```

    ## # A tibble: 336,776 × 5
    ##    flight dep_time dep_time_msm sched_dep_time sched_dep_time_msm
    ##     <int>    <int>        <dbl>          <int>              <dbl>
    ##  1   1545      517          317            515                315
    ##  2   1714      533          333            529                329
    ##  3   1141      542          342            540                340
    ##  4    725      544          344            545                345
    ##  5    461      554          354            600                360
    ##  6   1696      554          354            558                358
    ##  7    507      555          355            600                360
    ##  8   5708      557          357            600                360
    ##  9     79      557          357            600                360
    ## 10    301      558          358            600                360
    ## # … with 336,766 more rows
…
